<?xml version="1.0" encoding="iso-8859-1"?>
<!-- Generator: Adobe Illustrator 18.1.1, SVG Export Plug-In . SVG Version: 6.00 Build 0)  -->
<svg version="1.1" id="Layer_1" xmlns="http://www.w3.org/2000/svg" xmlns:xlink="http://www.w3.org/1999/xlink" x="0px" y="0px"
	 viewBox="0 0 46 50" style="enable-background:new 0 0 46 50;" xml:space="preserve">
<path style="fill:none;" d="M7.096,21.621h24.791c0.436,0,0.79-0.355,0.79-0.792c0-0.438-0.354-0.793-0.79-0.793H7.096
	c-0.436,0-0.79,0.355-0.79,0.793C6.306,21.266,6.66,21.621,7.096,21.621z"/>
<path style="fill:none;" d="M32.677,26.38c0-0.438-0.354-0.793-0.79-0.793H7.096c-0.436,0-0.79,0.355-0.79,0.793
	c0,0.438,0.354,0.792,0.79,0.792h24.791C32.324,27.172,32.677,26.817,32.677,26.38z"/>
<path style="fill:none;" d="M42.473,0H3.527C1.582,0,0,1.588,0,3.539v37.42c0,0.21,0.083,0.412,0.231,0.561l8.22,8.249
	C8.599,49.917,8.8,50,9.009,50h33.464C44.418,50,46,48.413,46,46.461V3.539C46,1.588,44.418,0,42.473,0z M8.22,47.294l-5.523-5.542
	h4.206c0.726,0,1.316,0.593,1.316,1.321V47.294z M42.473,48.415H9.799v-5.342c0-1.603-1.299-2.906-2.896-2.906H1.58V3.539
	c0-1.077,0.873-1.954,1.947-1.954h38.946c1.074,0,1.947,0.876,1.947,1.954v42.922l0,0C44.42,47.538,43.547,48.415,42.473,48.415z"/>
<path style="fill:none;" d="M7.096,16.07h24.791c0.436,0,0.79-0.355,0.79-0.793c0-0.437-0.354-0.792-0.79-0.792H7.096
	c-0.436,0-0.79,0.355-0.79,0.792C6.307,15.715,6.66,16.07,7.096,16.07z"/>
<path style="fill:none;" d="M38.903,25.587h-2.95c-0.436,0-0.79,0.355-0.79,0.793c0,0.438,0.354,0.792,0.79,0.792h2.95
	c0.436,0,0.79-0.355,0.79-0.792C39.693,25.942,39.339,25.587,38.903,25.587z"/>
<path style="fill:none;" d="M38.903,20.035h-2.95c-0.436,0-0.79,0.355-0.79,0.793c0,0.438,0.354,0.792,0.79,0.792h2.95
	c0.436,0,0.79-0.355,0.79-0.792S39.339,20.035,38.903,20.035z"/>
<path style="fill:none;" d="M38.903,14.485h-2.95c-0.436,0-0.79,0.355-0.79,0.792c0,0.438,0.354,0.793,0.79,0.793h2.95
	c0.436,0,0.79-0.355,0.79-0.793C39.693,14.839,39.339,14.485,38.903,14.485z"/>
<path style="fill:none;" d="M38.903,4.902H7.096c-0.436,0-0.79,0.355-0.79,0.792v4.429c0,0.438,0.354,0.793,0.79,0.793h31.806
	c0.436,0,0.79-0.355,0.79-0.793V5.694C39.693,5.256,39.339,4.902,38.903,4.902z M7.886,9.331V6.487h30.227v2.844H7.886z"/>
<path style="fill:none;" d="M36.115,37.748v-2.05c0.363,0.095,0.739,0.256,1.115,0.459c0.148,0.081,0.309,0.121,0.47,0.121
	c0.511,0,0.914-0.39,0.914-0.903c0-0.405-0.228-0.66-0.484-0.809c-0.578-0.324-1.223-0.54-1.949-0.647v-0.189
	c0-0.392-0.31-0.701-0.699-0.701c-0.39,0-0.699,0.31-0.699,0.701v0.161c-1.693,0.176-2.822,1.174-2.822,2.658
	c0,1.605,0.954,2.347,2.89,2.873v2.144c-0.618-0.135-1.156-0.391-1.72-0.755c-0.161-0.109-0.349-0.176-0.524-0.176
	c-0.524,0-0.928,0.392-0.928,0.917c0,0.364,0.175,0.634,0.457,0.809c0.793,0.486,1.693,0.823,2.648,0.944v0.728
	c0,0.391,0.309,0.702,0.699,0.702c0.39,0,0.699-0.31,0.699-0.702v-0.714c1.693-0.189,2.849-1.16,2.849-2.671
	C39.031,39.138,38.157,38.301,36.115,37.748z M34.851,37.398c-0.739-0.27-0.927-0.553-0.927-0.971c0-0.432,0.282-0.755,0.927-0.85
	V37.398z M36.115,41.633v-1.874c0.726,0.256,0.954,0.553,0.954,0.998C37.069,41.242,36.746,41.539,36.115,41.633z"/>
<path style="fill:#0E8BCC;" d="M27.057,33.339H14.662c-0.436,0-0.79,0.355-0.79,0.792v4.429c0,0.438,0.354,0.793,0.79,0.793h12.396
	c0.436,0,0.79-0.355,0.79-0.793v-4.429C27.847,33.694,27.494,33.339,27.057,33.339z M26.267,37.768H15.452v-2.844h10.816V37.768z"/>
</svg>
