<?xml version="1.0" encoding="utf-8"?>
<!-- Generator: Adobe Illustrator 17.0.0, SVG Export Plug-In . SVG Version: 6.00 Build 0)  -->
<!DOCTYPE svg PUBLIC "-//W3C//DTD SVG 1.1//EN" "http://www.w3.org/Graphics/SVG/1.1/DTD/svg11.dtd">
<svg version="1.1" id="Layer_1" xmlns="http://www.w3.org/2000/svg" xmlns:xlink="http://www.w3.org/1999/xlink" x="0px" y="0px"
	 width="108px" height="134px" viewBox="0 0 108 134" enable-background="new 0 0 108 134" xml:space="preserve">
<g>
	<g>
		<path fill="#A7C1E1" d="M53.861,99.396L53.861,99.396c-1.106,0-2.005-0.898-2.005-2.005l0.004-45.231
			c0-1.106,0.898-2.005,2.005-2.005l0,0c1.106,0,2.005,0.898,2.005,2.005l-0.004,45.231C55.867,98.498,54.968,99.396,53.861,99.396z
			"/>
		<path fill="#A7C1E1" d="M53.861,99.396c-0.513,0-1.026-0.197-1.42-0.586L35.145,81.514c-0.783-0.783-0.783-2.054,0-2.835
			c0.783-0.783,2.054-0.783,2.835,0l15.877,15.877l15.877-15.877c0.783-0.783,2.054-0.783,2.835,0c0.781,0.783,0.783,2.054,0,2.835
			L55.272,98.81C54.887,99.2,54.374,99.396,53.861,99.396z"/>
	</g>
	<g>
		<path fill="#A7C1E1" d="M97.701,133.512H10.025C4.499,133.512,0,129.017,0,123.487V10.025C0,4.495,4.499,0,10.025,0h63.67
			c1.106,0,2.005,0.898,2.005,2.005s-0.898,2.005-2.005,2.005h-63.67c-3.316,0-6.015,2.699-6.015,6.015v113.461
			c0,3.316,2.699,6.015,6.015,6.015h87.676c3.316,0,6.015-2.699,6.015-6.015V34.905c0-1.106,0.898-2.005,2.005-2.005
			c1.106,0,2.005,0.898,2.005,2.005v88.585C107.727,129.016,103.231,133.512,97.701,133.512z"/>
		<path fill="#A7C1E1" d="M105.721,36.909H73.695c-1.106,0-2.005-0.898-2.005-2.005V2.875c0-1.106,0.898-2.005,2.005-2.005
			c1.106,0,2.005,0.898,2.005,2.005v30.021h30.021c1.106,0,2.005,0.898,2.005,2.005S106.832,36.909,105.721,36.909z"/>
		<path fill="#A7C1E1" d="M105.721,36.909c-0.522,0-1.042-0.204-1.436-0.605L72.26,3.408c-0.77-0.79-0.754-2.065,0.041-2.835
			c0.79-0.774,2.061-0.754,2.835,0.041l32.026,32.896c0.77,0.79,0.754,2.065-0.041,2.835
			C106.731,36.721,106.227,36.909,105.721,36.909z"/>
	</g>
</g>
</svg>
