<?xml version="1.0" encoding="iso-8859-1"?>
<!-- Generator: Adobe Illustrator 18.1.1, SVG Export Plug-In . SVG Version: 6.00 Build 0)  -->
<svg version="1.1" id="Layer_1" xmlns="http://www.w3.org/2000/svg" xmlns:xlink="http://www.w3.org/1999/xlink" x="0px" y="0px"
	 viewBox="0 0 63 40" style="enable-background:new 0 0 63 40;" xml:space="preserve">
<path style="fill:none;" d="M59.205,4.799h-1.106V3.716C58.098,1.667,56.396,0,54.303,0H3.796C1.703,0,0,1.667,0,3.716v27.769
	c0,2.049,1.703,3.716,3.796,3.716h1.106v1.083C4.902,38.333,6.604,40,8.697,40h50.507C61.297,40,63,38.333,63,36.284V8.515
	C63,6.466,61.297,4.799,59.205,4.799z M3.796,32.744c-0.709,0-1.286-0.565-1.286-1.259V3.716c0-0.694,0.577-1.259,1.286-1.259
	h50.507c0.709,0,1.285,0.565,1.285,1.259v1.083H8.697c-2.093,0-3.796,1.667-3.796,3.716v24.229H3.796z M60.49,36.284
	c0,0.694-0.577,1.259-1.285,1.259H8.697c-0.709,0-1.286-0.565-1.286-1.259V8.515c0-0.694,0.577-1.259,1.286-1.259h50.507
	c0.709,0,1.285,0.565,1.285,1.259V36.284L60.49,36.284z"/>
<path style="fill:none;" d="M10.992,15.383c0,0.678,0.562,1.228,1.255,1.228h43.078c0.693,0,1.255-0.55,1.255-1.228l0,0
	c0-0.679-0.562-1.229-1.255-1.229H12.247C11.554,14.155,10.992,14.705,10.992,15.383L10.992,15.383z"/>
<path style="fill:none;" d="M10.992,22.633c0,0.678,0.562,1.229,1.255,1.229h43.078c0.693,0,1.255-0.55,1.255-1.229l0,0
	c0-0.679-0.562-1.229-1.255-1.229H12.247C11.554,21.404,10.992,21.955,10.992,22.633L10.992,22.633z"/>
<path style="fill:#0C8CCD;" d="M39.006,29.883c0,0.678-0.562,1.228-1.255,1.228H12.247c-0.693,0-1.255-0.55-1.255-1.228l0,0
	c0-0.679,0.562-1.229,1.255-1.229h25.504C38.444,28.654,39.006,29.204,39.006,29.883L39.006,29.883z"/>
</svg>
