<?xml version="1.0" encoding="iso-8859-1"?>
<!-- Generator: Adobe Illustrator 18.1.1, SVG Export Plug-In . SVG Version: 6.00 Build 0)  -->
<svg version="1.1" id="Layer_1" xmlns="http://www.w3.org/2000/svg" xmlns:xlink="http://www.w3.org/1999/xlink" x="0px" y="0px"
	 viewBox="0 0 63 40" style="enable-background:new 0 0 63 40;" xml:space="preserve">
<path style="fill:none;" d="M59.204,4.799h-1.106V3.716C58.098,1.667,56.396,0,54.303,0H3.796C1.703,0,0,1.667,0,3.716v27.769
	c0,2.049,1.703,3.716,3.796,3.716h1.106v1.083C4.902,38.333,6.604,40,8.697,40h50.507C61.297,40,63,38.333,63,36.284V8.515
	C63,6.466,61.297,4.799,59.204,4.799z M3.796,32.744c-0.709,0-1.286-0.565-1.286-1.259V3.716c0-0.694,0.577-1.258,1.286-1.258
	h50.507c0.709,0,1.285,0.565,1.285,1.258v1.083H8.697c-2.093,0-3.795,1.667-3.795,3.716v24.229H3.796z M60.49,36.284
	c0,0.694-0.577,1.259-1.285,1.259H8.697c-0.709,0-1.286-0.565-1.286-1.259V8.515c0-0.694,0.577-1.259,1.286-1.259h50.507
	c0.709,0,1.285,0.565,1.285,1.259V36.284L60.49,36.284z"/>
<path style="fill:none;" d="M40.17,16.612h15.155c0.693,0,1.255-0.55,1.255-1.228c0-0.679-0.562-1.229-1.255-1.229H40.17
	c-0.693,0-1.255,0.55-1.255,1.229C38.915,16.062,39.477,16.612,40.17,16.612z"/>
<path style="fill:none;" d="M40.17,23.862h15.155c0.693,0,1.255-0.55,1.255-1.229c0-0.679-0.562-1.229-1.255-1.229H40.17
	c-0.693,0-1.255,0.55-1.255,1.229C38.915,23.311,39.477,23.862,40.17,23.862z"/>
<path style="fill:none;" d="M50.097,28.654H40.17c-0.693,0-1.255,0.55-1.255,1.229c0,0.678,0.562,1.228,1.255,1.228h9.926
	c0.693,0,1.255-0.55,1.255-1.228C51.352,29.205,50.79,28.654,50.097,28.654z"/>
<path style="fill:none;" d="M23.207,23.413c-5.61,0-10.175,4.22-10.175,9.406c0,0.679,0.562,1.229,1.255,1.229h17.839
	c0.693,0,1.255-0.55,1.255-1.229C33.382,27.632,28.817,23.413,23.207,23.413z M21.866,25.977v5.613h-6.204
	C16.226,28.737,18.717,26.483,21.866,25.977z M24.376,31.59v-5.637c3.23,0.45,5.802,2.733,6.376,5.637H24.376z"/>
<path style="fill:#0C8CCD;" d="M23.11,22.515c3.363,0,6.099-2.678,6.099-5.971c0-3.292-2.736-5.971-6.099-5.971
	s-6.099,2.679-6.099,5.971C17.011,19.836,19.747,22.515,23.11,22.515z M23.11,13.03c1.979,0,3.589,1.576,3.589,3.514
	c0,1.938-1.61,3.514-3.589,3.514s-3.589-1.576-3.589-3.514C19.521,14.606,21.131,13.03,23.11,13.03z"/>
</svg>
