<?xml version="1.0" encoding="iso-8859-1"?>
<!-- Generator: Adobe Illustrator 18.1.1, SVG Export Plug-In . SVG Version: 6.00 Build 0)  -->
<svg version="1.1" id="Layer_1" xmlns="http://www.w3.org/2000/svg" xmlns:xlink="http://www.w3.org/1999/xlink" x="0px" y="0px"
	 viewBox="0 0 71 134" style="enable-background:new 0 0 71 134;" xml:space="preserve">
<path d="M62.553,0H8.447C3.789,0,0,3.806,0,8.484v117.033C0,130.194,3.789,134,8.448,134h54.105
	c4.658,0,8.447-3.806,8.447-8.484V8.484C71,3.806,67.211,0,62.553,0z M4.233,21.323h62.534v88.619H4.233V21.323z M8.447,4.251
	h54.105c2.324,0,4.214,1.899,4.214,4.232v10.005H4.233V8.484C4.233,6.15,6.124,4.251,8.447,4.251z M62.553,129.749H8.447
	c-2.324,0-4.214-1.899-4.214-4.232v-12.741h62.534v12.741C66.767,127.85,64.876,129.749,62.553,129.749z"/>
<path d="M35.5,114.654c-3.823,0-6.932,3.124-6.932,6.962c0,3.839,3.11,6.962,6.932,6.962
	s6.932-3.123,6.932-6.962C42.432,117.778,39.323,114.654,35.5,114.654z M35.5,125.744c-2.266,0-4.11-1.851-4.11-4.128
	s1.844-4.128,4.11-4.128s4.11,1.852,4.11,4.128S37.766,125.744,35.5,125.744z"/>
<path d="M25.905,13.503h19.19c0.779,0,1.411-0.635,1.411-1.417c0-0.783-0.632-1.417-1.411-1.417h-19.19
	c-0.78,0-1.411,0.634-1.411,1.417C24.494,12.868,25.126,13.503,25.905,13.503z"/>
<path d="M20.826,13.503c0.37,0,0.734-0.15,0.996-0.414c0.262-0.266,0.415-0.629,0.415-1.003
	c0-0.374-0.153-0.737-0.415-1.003c-0.263-0.263-0.627-0.413-0.996-0.413c-0.372,0-0.734,0.15-0.999,0.413
	c-0.262,0.264-0.412,0.63-0.412,1.003c0,0.374,0.149,0.737,0.412,1.003C20.09,13.353,20.454,13.503,20.826,13.503z"/>
</svg>
