<?xml version="1.0" encoding="iso-8859-1"?>
<!-- Generator: Adobe Illustrator 18.1.1, SVG Export Plug-In . SVG Version: 6.00 Build 0)  -->
<svg version="1.1" id="Layer_1" xmlns="http://www.w3.org/2000/svg" xmlns:xlink="http://www.w3.org/1999/xlink" x="0px" y="0px"
	 viewBox="0 0 57.839 59.016" style="enable-background:new 0 0 57.839 59.016;" xml:space="preserve">
<path d="M28.715,5.116L6.151,11.848c-0.295,0.088-0.5,0.356-0.507,0.662c-0.007,0.311-0.136,7.716,2.604,16.561
	c4.603,14.857,13.619,21.683,20.372,24.793c0.096,0.044,0.198,0.066,0.3,0.066c0.102,0,0.204-0.022,0.3-0.066
	C41.454,48.229,47.05,37.271,49.59,29.071c2.74-8.845,2.611-16.25,2.604-16.561c-0.007-0.306-0.212-0.574-0.507-0.662L29.124,5.116
	C28.992,5.076,28.849,5.076,28.715,5.116z M50.771,13.051c-0.023,1.825-0.274,8.307-2.553,15.644
	c-2.437,7.843-7.761,18.297-19.298,23.747c-11.537-5.45-16.862-15.904-19.298-23.747c-2.28-7.337-2.53-13.819-2.553-15.644
	l21.852-6.52L50.771,13.051z"/>
<path d="M57.837,7.424c-0.007-0.321-0.231-0.597-0.545-0.672L29.087,0.019c-0.11-0.026-0.223-0.026-0.333,0
	L0.547,6.752C0.233,6.827,0.009,7.103,0.002,7.424C0,7.519-0.167,17.041,3.251,28.069c5.735,18.508,16.962,27.009,25.37,30.881
	c0.095,0.044,0.197,0.066,0.299,0.066c0.102,0,0.204-0.022,0.299-0.066c15.234-7.015,22.205-20.666,25.37-30.881
	C58.006,17.041,57.839,7.519,57.837,7.424z M53.229,27.653c-3.06,9.874-9.758,23.038-24.309,29.875
	C14.383,50.698,7.686,37.552,4.624,27.693C1.727,18.364,1.446,10.141,1.425,7.997L28.92,1.434l27.494,6.563
	C56.394,10.137,56.117,18.33,53.229,27.653z"/>
</svg>
